{
  "project_info": {
    "project_number": "319937502859",
    "firebase_url": "https://shop-app-86723-default-rtdb.firebaseio.com",
    "project_id": "shop-app-86723",
    "storage_bucket": "shop-app-86723.appspot.com"
  },
  "client": [
    {
      "client_info": {
        "mobilesdk_app_id": "1:319937502859:android:32fdb5d67d8c7011d17e8e",
        "android_client_info": {
          "package_name": "com.example.shop_app"
        }
      },
      "oauth_client": [
        {
          "client_id": "319937502859-52rtg2ir9u66mms1r4eaajmjo7mabu97.apps.googleusercontent.com",
          "client_type": 3
        }
      ],
      "api_key": [
        {
          "current_key": "AIzaSyApPTfXsjaiUsFxrQhUHsB_N1cDOEYDx3g"
        }
      ],
      "services": {
        "appinvite_service": {
          "other_platform_oauth_client": [
            {
              "client_id": "319937502859-52rtg2ir9u66mms1r4eaajmjo7mabu97.apps.googleusercontent.com",
              "client_type": 3
            }
          ]
        }
      }
    }
  ],
  "configuration_version": "1"
}